{
  "project_info": {
    "project_number": "80292442704",
    "project_id": "sadata-bd986",
    "storage_bucket": "sadata-bd986.appspot.com"
  },
  "client": [
    {
      "client_info": {
        "mobilesdk_app_id": "1:80292442704:android:673a58f30329826d209755",
        "android_client_info": {
          "package_name": "com.androidtutz.anushka.tmdbclient"
        }
      },
      "oauth_client": [
        {
          "client_id": "80292442704-jk2kjifhp4t12ii12hlkihed6084cfao.apps.googleusercontent.com",
          "client_type": 1,
          "android_info": {
            "package_name": "com.androidtutz.anushka.tmdbclient",
            "certificate_hash": "0c74208ba51563de77b2f1e1fd7016d8e658f158"
          }
        },
        {
          "client_id": "80292442704-076955hr5mlkfj8aig2vl88tgde96mke.apps.googleusercontent.com",
          "client_type": 3
        }
      ],
      "api_key": [
        {
          "current_key": "AIzaSyALZFim9790GLTifoUTqByeBYmnh7ybkLU"
        }
      ],
      "services": {
        "appinvite_service": {
          "other_platform_oauth_client": [
            {
              "client_id": "80292442704-076955hr5mlkfj8aig2vl88tgde96mke.apps.googleusercontent.com",
              "client_type": 3
            }
          ]
        }
      }
    }
  ],
  "configuration_version": "1"
}