{
  "type": "service_account",
  "project_id": "movietest-329107",
  "private_key_id": "7b9c582f4faa77df0e7ec4435547759cef868336",
  "private_key": "-----BEGIN PRIVATE KEY-----\nMIIEvQIBADANBgkqhkiG9w0BAQEFAASCBKcwggSjAgEAAoIBAQC1Dv1RyAjbXLdM\nvV9/o0RnSjbZd3pO8Px4QxAsKE43iL/nvVGycLuJGBFpELS5kvHS+XXBmCvLkEdE\n/BMW0VXaEZuZbZdnJNvm/A8om6KRnwpY9SrgqVILraxRjWMhiILvtK9U4gN4znw3\nXRrCWM9Vor13a2olcymAKisyo6EuuFGiIBwhqK8trEXDBFPiJCj8bA9g5NCY9NL7\ntUGiQQcDIIigQ/VYFRi/EBUSfMv+v9oeVWChlKqkVYx1uWw6iyM55pzcBYLgFEKB\nK0wPxHrmJsNPtS9p4p+qR12m3wJHeen6WK7t7HucMhAO3td8hJGH1bEK23z3n7oq\nTssYwidbAgMBAAECggEAV3fc2B/fa33wjXGlC4fn2VBojAlkvHM+PKkFTJfSJZD6\nSK1UpPRCHPpUGuI3tLjw+1+JTFPDwI08aO6wGCNcKsO73FStwmXzmDSn7BG36Uqg\nWJZkNvGFkd++cg1wWPhWbQ/obgTb8YYrSyG+9imqTDAZAPKS7nGimGiGwul6yhLv\noujfuGqhyhFmmdnDFra5i3QyQYvWInCqZh3RjHi6iqbOixwpOF5a1/1T05886M9P\nur1NbeBHEmcDraKBY0LU5bQ+SSH+zqYIlpt31IT/a8QanTn/ejb2NsJsdwYJ8Bj2\nqy+NPsrnpaDdPX9Ijbi8rmFf8qI0OxFcWvwFbc+frQKBgQDpn8SWajw1Fxbn6aj7\nklq8kLAUt+1M8cg0DbSHFqgK3v0dR1E6qyTHUmav1+utCjQ91LVmNkl3oKQ4zv3a\nUCbXOdTRyO6GK1Ir/u6EYynhapjd2kk2qoUiu3VZc73qNUK5iEs3zXYInAAvLkjV\n27tbsQ+yNsS3gPpKrg/EwttQ1QKBgQDGZl3QSAC4U7G8/hFAWYHnFKw1zTHIc+Zg\nehM/cvIieABVYhJBzhDK+74JL0VAcjmXjpek+aV4KqlTQgflRAh3ICHuvOjC3P6L\nHeNpj1GOnPsQQAGTx1J0nnFIyreuEcediahCmlF8TJTG15kyH13ZGRzf4Uu9BhRI\nvVBBmgcvbwKBgDscZ5s/SfiM3QjUwCLXBwpK+aJkXzBmxKcXCKRdgSsu/JAZ6V2U\ny/t6x+yaD1F7EXjLhxJTjgcsqCCPjv9b5Ff0k/p4gpGECIiFOkhY5tHYLNGFV5zz\nTDhbgfeeJ2FJFJbo+08lN0Y6YnmNlnQ14pPymuwWm3NquOmIXQkF3IP5AoGBAJlE\n2bKe/Vdo6MVNLXyd6TnggY1qwMvPpajgheAdZ6tzMybDBcGqdNSrGEs2JnS8CXvo\n34PGjKtBod+9AiZ+oV+OBkjNza9EVKyaYWXaHzJiWZ5bJBzK/gszn+aRHMcv2xr8\nDm2tk8fHzaOzSRksnC6sNN9LyFv1x1POVKLpYCWnAoGAfdTW011yCpbLnsE+/ojf\nr8vyhM1mAnRm8c22KO01yoJP/7hNRZlzWjUJxtQybtnIB7CETrCaAB5EIb1/Oz8o\nP845cYBUGZ/7sTA/GhPCMtPYaLfiin2kVBY01lDQLAGF2axWGrCZ+RVvLUwRS80a\noKJ33RS0XwPk0xz3fWx1ooU=\n-----END PRIVATE KEY-----\n",
  "client_email": "firebase-app-distribution-admi@movietest-329107.iam.gserviceaccount.com",
  "client_id": "113377308856223698958",
  "auth_uri": "https://accounts.google.com/o/oauth2/auth",
  "token_uri": "https://oauth2.googleapis.com/token",
  "auth_provider_x509_cert_url": "https://www.googleapis.com/oauth2/v1/certs",
  "client_x509_cert_url": "https://www.googleapis.com/robot/v1/metadata/x509/firebase-app-distribution-admi%40movietest-329107.iam.gserviceaccount.com"
}
